{
    "searchQuery": "",
    "gridOptions": {},
    "maxPageNumbers": 7,
    "gridApi": null,
    "defaultColDef": {
        "sortable": true,
        "editable": true,
        "resizable": true,
        "suppressMenu": true
    },
    "json": [
        {
          "Entidad": "2018",
          "Enero":  886,
          "Febrero":  1114,
          "Marzo":  1306,
          "Abril":  2250,
          "Mayo":  2107,
          "Junio":  5411,
          "Julio":  6133,
          "Agosto":  7221,
          "Septiembre":  2783

        },        
        {
          "Entidad": "2019",
          "Enero":  2282,
          "Febrero":  2350,
          "Marzo":  3411,
          "Abril":  4502,
          "Mayo":  1635,
          "Junio":  1809,
          "Julio":  4947,
          "Agosto":  9102,
          "Septiembre":  6370
        }       
      ],
    "columnDefs": [
        {
          "headerName": "Año",
          "field": "Entidad",
          "width": 250,
          "filter": true,
          "checkboxSelection": true,
          "headerCheckboxSelectionFilteredOnly": true,
          "headerCheckboxSelection": true,
          "pinned": "left"
        },
        {
          "headerName": "Enero",
          "field": "Enero",
          "filter": true,
          "width": 175
        },
        {
          "headerName": "Febrero",
          "field": "Febrero",
          "filter": true,
          "width": 250
        },
        {
            "headerName": "Marzo",
            "field": "Marzo",
            "filter": true,
            "width": 250
          },
          {
            "headerName": "Abril",
            "field": "Abril",
            "filter": true,
            "width": 150
          },
          {
            "headerName": "Mayo",
            "field": "Mayo",
            "filter": true,
            "width": 150
          },
          {
            "headerName": "Junio",
            "field": "Junio",
            "filter": true,
            "width": 125
          },
          {
            "headerName": "Julio",
            "field": "Julio",
            "filter": true,
            "width": 125
          },
          {
            "headerName": "Agosto",
            "field": "Agosto",
            "filter": "agNumberColumnFilter",
            "width": 125
          },
          {
            "headerName": "Septiembre",
            "field": "Septiembre",
            "filter": "agNumberColumnFilter",
            "width": 125
          }
      ],
    "graphic":{
        "data":{
            "labels": ["Ene", "Feb", "Mar", "Abr", "May", "Jun", "Jul", "Ago", "Sep"],
            "datasets":[
                {
                    "data": [886, 1114, 1306, 2250, 2107,5411, 6133, 7221, 2783],
                    "label": "2018",
                    "borderColor": "#7367F0",
                    "fill": false
                }, {
                    "data": [2282, 2350, 3411, 4502, 1635, 1809, 4947, 9102, 6370],
                    "label": "2019",
                    "borderColor": "#28C76F",
                    "fill": false
                }
            ]
        },
        "options": {
            "title": {
                "display": true,
                "text": "Kilómetros recorridos por mes"
            }
        }
    }
}