{
    "searchQuery": "",
    "gridOptions": {},
    "maxPageNumbers": 7,
    "gridApi": null,
    "defaultColDef": {
        "sortable": true,
        "editable": true,
        "resizable": true,
        "suppressMenu": true
    },
    "json": [
        {
            "Entidad": "2019",
            "enero": "60 viajes",
            "febrero": "30 viajes",
            "marzo": "10 viajes",
            "abril": "10 viajes",
            "mayo": "10 viajes",
            "junio": "10 viajes",
            "julio": "10 viajes",
            "agosto": "10 viajes",
            "septiembre": "10 viajes",
            "octubre": "10 viajes",
            "noviembre": "10 viajes",
            "diciembre": "10 viajes"
        }        
    ],
    "columnDefs": [
        {
            "headerName": "Año",
            "field": "Entidad",
            "filter": true,
            "width": 250,
            "pinned": "left"
        },
        {
            "headerName": "Enero",
            "field": "enero",
            "width": 175,
            "filter": true,
            "checkboxSelection": true,
            "headerCheckboxSelectionFilteredOnly": true,
            "headerCheckboxSelection": true
        },
        {
            "headerName": "Febrero",
            "field": "febrero",
            "filter": true,
            "width": 175
        },
        {
            "headerName": "Marzo",
            "field": "marzo",
            "filter": true,
            "width": 250
        },
        {
            "headerName": "Abril",
            "field": "abril",
            "filter": true,
            "width": 150
        },
        {
            "headerName": "Mayo",
            "field": "mayo",
            "filter": true,
            "width": 150
        },
        {
            "headerName": "Junio",
            "field": "junio",
            "filter": true,
            "width": 150
        },
        {
            "headerName": "Julio",
            "field": "julio",
            "filter": true,
            "width": 150
        },
        {
            "headerName": "Agosto",
            "field": "agosto",
            "filter": true,
            "width": 150
        },
        {
            "headerName": "Septiembre",
            "field": "septiembre",
            "filter": true,
            "width": 150
        },
        {
            "headerName": "Octubre",
            "field": "octubre",
            "filter": true,
            "width": 150
        },
        {
            "headerName": "Noviembre",
            "field": "noviembre",
            "filter": true,
            "width": 150
        },
        {
            "headerName": "Diciembre",
            "field": "diciembre",
            "filter": true,
            "width": 150
        }
    ],
    "graphic": {
        "data": {
            "labels": [
                "Enero",
                "Febrero",
                "Marzo",
                "Abril",
                "Mayo",
                "Junio",
                "Julio",
                "Agosto",
                "Septiembre",
                "Octubre",
                "Noviembre",
                "Diciembre"
            ],
            "datasets": [
                {
                    "label": "Viajes",
                    "backgroundColor": [
                        "#FF9F43",
                        "#28C76F",
                        "#EA5455",
                        "#179272",
                        "#800A70"
                    ],
                    "data": [
                        10,
                        15,
                        20,
                        10,
                        15
                    ]
                }
            ]
        },
        "options": {
            "title": {
                "display": true,
                "text": "Número de viajes marcado como tienda al mes"
            }
        }
    }
}